<?xml version="1.0" encoding="UTF-8"?>
<!DOCTYPE svg PUBLIC "-//W3C//DTD SVG 1.1//EN" "http://www.w3.org/Graphics/SVG/1.1/DTD/svg11.dtd">
<!-- Creator: CorelDRAW X8 -->
<svg xmlns="http://www.w3.org/2000/svg" xml:space="preserve" width="10.8372mm" height="10.8372mm" version="1.1" style="shape-rendering:geometricPrecision; text-rendering:geometricPrecision; image-rendering:optimizeQuality; fill-rule:evenodd; clip-rule:evenodd"
viewBox="0 0 279 279"
 xmlns:xlink="http://www.w3.org/1999/xlink">
 <defs>
  <style type="text/css">
   <![CDATA[
    .str0 {stroke:#757475;stroke-width:5.14106}
    .fil0 {fill:none}
   ]]>
  </style>
 </defs>
 <g id="Layer_x0020_1">
  <metadata id="CorelCorpID_0Corel-Layer"/>
  <rect class="fil0" width="279" height="279"/>
  <g id="_2042450299536">
   <g>
    <path class="fil0 str0" d="M127 112l25 0c16,0 30,14 30,30l0 99 -85 0 0 -99c0,-16 13,-30 30,-30z"/>
    <circle class="fil0 str0" cx="139" cy="69" r="32"/>
   </g>
   <g>
    <g>
     <path class="fil0 str0" d="M215 118l19 0c14,0 25,10 25,24l0 79 -65 0 0 -79c0,-3 -1,-6 -2,-9 4,-9 13,-15 23,-15z"/>
     <path class="fil0 str0" d="M224 58c14,0 26,11 26,25 0,14 -12,25 -26,25 -14,0 -25,-11 -25,-25 0,-14 11,-25 25,-25z"/>
    </g>
    <g>
     <path class="fil0 str0" d="M44 118l20 0c10,0 19,6 22,15 -1,3 -1,6 -1,9l0 79 -65 0 0 -79c0,-14 11,-24 24,-24z"/>
     <path class="fil0 str0" d="M54 58c14,0 25,11 25,25 0,14 -11,25 -25,25 -14,0 -25,-11 -25,-25 0,-14 11,-25 25,-25z"/>
    </g>
   </g>
  </g>
 </g>
</svg>
